<svg
  xmlns="http://www.w3.org/2000/svg"
  xmlns:xlink="http://www.w3.org/1999/xlink"
  version="1.1"
  x="0px"
  y="0px"
  viewBox="0 0 100 100"
  enable-background="new 0 0 100 100"
  xml:space="preserve"
>
  <g display="none">
    <g display="inline">
      <g><rect fill="#000000" width="100" height="5" /></g>
    </g>
    <g display="inline">
      <g><rect y="95" fill="#000000" width="100" height="5" /></g>
    </g>
    <g display="inline">
      <g><rect x="95" fill="#000000" width="5" height="100" /></g>
    </g>
    <g display="inline">
      <g><rect fill="#000000" width="5" height="100" /></g>
    </g>
  </g>
  <g enable-background="new    ">
    <g>
      <g>
        <circle
          fill="none"
          stroke="#000000"
          stroke-width="8"
          stroke-miterlimit="10"
          cx="50"
          cy="50"
          r="41.326"
        />
      </g>
    </g>
  </g>
  <g enable-background="new    ">
    <g>
      <g>
        <path
          fill-rule="evenodd"
          clip-rule="evenodd"
          d="M60.484,60.98c0-0.026-0.007-0.052-0.008-0.078     c-0.002-0.074,0.008-0.152,0.001-0.226c-0.072-0.78-0.417-1.263-0.936-1.521c-0.369-0.265-0.818-0.425-1.308-0.425h-16.29     c-0.419,0-0.806,0.122-1.142,0.321c-0.573,0.192-0.946,0.66-1.054,1.449c-0.004,0.019-0.007,0.038-0.011,0.056     c-0.003,0.031-0.014,0.055-0.017,0.086c-0.002,0.024,0.002,0.051,0,0.076c-0.01,0.087-0.026,0.172-0.026,0.262     c0,0.103,0.017,0.201,0.03,0.3c0.002,0.026,0.005,0.054,0.008,0.08c0.006,0.037,0.011,0.074,0.019,0.11     c0.441,3.441,5.058,8.051,10.412,7.838c5.579-0.16,10.238-4.871,10.312-8.243C60.477,61.037,60.484,61.01,60.484,60.98z"
        />
      </g>
    </g>
    <g>
      <g><ellipse cx="29.221" cy="54.905" rx="4.803" ry="4.815" /></g>
    </g>
    <g>
      <g><ellipse cx="70.981" cy="54.905" rx="4.804" ry="4.815" /></g>
    </g>
  </g>
</svg>
